…
    ## Warning in mask$eval_all_mutate(quo): NAs introduced by coercion

``` r
homicide_df
```

    ## # A tibble: 19,547 × 14
    ##    uid   repor…¹ victi…² victi…³ victi…⁴ victi…⁵ victi…⁶ city  state   lat   lon
    ##    <chr>   <dbl> <chr>   <chr>   <chr>     <dbl> <chr>   <chr> <chr> <dbl> <dbl>
    ##  1 Alb-…  2.01e7 SATTER… VIVIANA White        15 Female  Albu… NM     35.1 -107.
    ##  2 Alb-…  2.01e7 MULA    VIVIAN  White        72 Female  Albu… NM     35.1 -107.
    ##  3 Alb-…  2.01e7 MARTIN… GUSTAVO White        56 Male    Albu… NM     35.1 -107.
    ##  4 Alb-…  2.01e7 BRITO   ELIZAB… White        22 Female  Albu… NM     35.1 -107.
    ##  5 Alb-…  2.01e7 BOYKIN  CEDRIC  Black        25 Male    Albu… NM     35.1 -107.
    ##  6 Alb-…  2.01e7 BARRAG… MIGUEL  White        20 Male    Albu… NM     35.1 -107.
    ##  7 Alb-…  2.01e7 WRONSKI VIOLA   White        88 Female  Albu… NM     35.1 -107.
    ##  8 Alb-…  2.01e7 TURNER  MICHEL… White        36 Female  Albu… NM     35.1 -107.
    ##  9 Alb-…  2.01e7 CHECKL… MICHAEL White        24 Male    Albu… NM     35.2 -107.
    ## 10 Alb-…  2.01e7 STOWE   KIMBREL White        50 Male    Albu… NM     35.1 -107.
    ## # … with 19,537 more rows, 3 more variables: disposition <chr>,
    ## #   city_state <chr>, resolved <dbl>, and abbreviated variable names
    ## #   ¹​reported_date, ²​victim_last, ³​victim_first, ⁴​victim_race, ⁵​victim_age,
    ## #   ⁶​victim_sex
…
  fit_logi_each 
```

    ## # A tibble: 46 × 6
    ##    city_state     term            log_OR    OR OR.conf.low OR.conf.high
    ##    <chr>          <chr>            <dbl> <dbl>       <dbl>        <dbl>
    ##  1 Albuquerque,NM victim_sexMale  0.736  2.09        0.698        6.25 
    ##  2 Atlanta,GA     victim_sexMale  0.296  1.34        0.802        2.25 
    ##  3 Baltimore,MD   victim_sexMale -0.940  0.391       0.266        0.573
    ##  4 Baton Rouge,LA victim_sexMale -1.37   0.253       0.103        0.621
    ##  5 Birmingham,AL  victim_sexMale -0.406  0.666       0.372        1.19 
    ##  6 Boston,MA      victim_sexMale -0.0684 0.934       0.402        2.17 
    ##  7 Buffalo,NY     victim_sexMale -0.601  0.548       0.213        1.41 
    ##  8 Charlotte,NC   victim_sexMale -0.425  0.654       0.322        1.33 
    ##  9 Chicago,IL     victim_sexMale -0.923  0.397       0.301        0.524
    ## 10 Cincinnati,OH  victim_sexMale -1.01   0.364       0.166        0.802
    ## # … with 36 more rows
…
